52,CUENTA - Maj Cintia Natalia,dni-32794026,1.1.2.6.1,,,8,8,1,,,,,
53,CUENTA - Irala Mario,dni-16331460,1.1.2.6.2,,,8,8,2,,,,,
54,CUENTA - Piñeiro Marcia,dni-36462100,1.1.2.6.3,,,8,8,3,,,,,
55,CUENTA - Angeloff Juan Carlos,dni-16636331,1.1.2.6.4,,,8,8,4,,,,,
56,CUENTA - Hartfield Diego,dni-28466344,1.1.2.6.5,,,8,8,5,,,,,
57,CUENTA - Bogado Guillermo,dni-28417564,1.1.2.6.6,,,8,8,6,,,,,
58,CUENTA - Tamis Matias Alejandro,dni-36458054,1.1.2.6.7,,,8,8,7,,,,,
59,CUENTA - Feversani Alicia,dni-16657343,1.1.2.6.8,,,8,8,8,,,,,
60,CUENTA - SZELIGA  DANIEL ORLANDO,cuit-20172981004,1.1.2.6.9,,,8,8,9,,,,,
61,CUENTA - Rendon Dolfy,dni-24259820,1.1.2.6.10,,,8,8,10,,,,,
62,CUENTA - Fieredrich Yoni,dni-35224995,1.1.2.6.11,,,8,8,11,,,,,
63,CUENTA - Saiz Maria Belen,dni-36451179,1.1.2.6.12,,,8,8,12,,,,,
64,CUENTA - Medina Joel,dni-27983888,1.1.2.6.13,,,8,8,13,,,,,
65,CUENTA - TRANSPORTE GARAY S.A.,cuit-30707851895,1.1.2.6.14,,,8,8,14,,,,,
66,CUENTA - Bourscheid Magni Raquel,dni-94988867,1.1.2.6.15,,,8,8,15,,,,,
67,CUENTA - Bautista Aldo Mauricio,dni-37082306,1.1.2.6.16,,,8,8,16,,,,,
68,CUENTA - VALLENA SERGIO RAUL,cuit-20280598209,1.1.2.6.17,,,8,8,17,,,,,
69,CUENTA - De Paula Willy,dni-25814275,1.1.2.6.18,,,8,8,18,,,,,
70,CUENTA - Milk World S.A.,cuit-30708938021,1.1.2.6.19,,,8,8,19,,,,,
71,CUENTA - Cañete Gustavo,dni-31381705,1.1.2.6.20,,,8,8,20,,,,,
72,CUENTA - Romero Anibal,dni-14447540,1.1.2.6.21,,,8,8,21,,,,,
73,CUENTA - Stupirski Oscar angel,dni-20890421,1.1.2.6.22,,,8,8,22,,,,,
74,CUENTA - Kanneman Irupe,dni-32463546,1.1.2.6.23,,,8,8,23,,,,,
75,CUENTA - Pietruczuk Marcelo Simon,cuit-20303616013,1.1.2.6.24,,,8,8,24,,,,,
76,CUENTA - Vera Laura,dni-28059813,1.1.2.6.25,,,8,8,25,,,,,
77,CUENTA - Valdovino Perla,dni-16146023,1.1.2.6.26,,,8,8,26,,,,,
78,CUENTA - Vargas Rocio,dni-31160730,1.1.2.6.27,,,8,8,27,,,,,
79,CUENTA - Bareiro Ariel,dni-26026672,1.1.2.6.28,,,8,8,28,,,,,
80,CUENTA - Rea Cristian Emmanuel,dni-29623543,1.1.2.6.29,,,8,8,29,,,,,
81,CUENTA - Aguirre Carol,dni-37156835,1.1.2.6.30,,,8,8,30,,,,,
82,CUENTA - Velazquez Sonia,dni-25059599,1.1.2.6.31,,,8,8,31,,,,,
83,CUENTA - Morel Victor,dni-17040356,1.1.2.6.32,,,8,8,32,,,,,
84,CUENTA - Nilsson Monica Gabriela,dni-23500045,1.1.2.6.33,,,8,8,33,,,,,
85,CUENTA - Bielokurec Monica,dni-20805685,1.1.2.6.34,,,8,8,34,,,,,
86,CUENTA - Silva Pablo,dni-30120208,1.1.2.6.35,,,8,8,35,,,,,
87,CUENTA - Nittmann Nancy,dni-25500232,1.1.2.6.36,,,8,8,36,,,,,
88,CUENTA - Rinfleich Elisa,dni-23664665,1.1.2.6.37,,,8,8,37,,,,,
89,CUENTA - LUCHETTI MIGUEL ANGEL,cuit-20318524328,1.1.2.6.38,,,8,8,38,,,,,
90,CUENTA - Gunther Esthela,dni-17874717,1.1.2.6.39,,,8,8,39,,,,,
91,CUENTA - Cabral Giovana,dni-35453806,1.1.2.6.40,,,8,8,40,,,,,
92,CUENTA - Small Luis,dni-28466338,1.1.2.6.41,,,8,8,41,,,,,
93,CUENTA - Suarez Norma Isabel,dni-27493902,1.1.2.6.42,,,8,8,42,,,,,
94,CUENTA - Mateu Miriam Estela,dni-24507639,1.1.2.6.43,,,8,8,43,,,,,
95,CUENTA - Glaser Tamara,dni-39529101,1.1.2.6.44,,,8,8,44,,,,,
96,CUENTA - Perrone Andres,dni-26556025,1.1.2.6.45,,,8,8,45,,,,,
97,CUENTA - Paiva Edgardo,dni-26623644,1.1.2.6.46,,,8,8,46,,,,,
98,CUENTA - Casales Lorena,dni-27847247,1.1.2.6.47,,,8,8,47,,,,,
99,CUENTA - Cassoni Pedro,dni-21608178,1.1.2.6.48,,,8,8,48,,,,,
100,CUENTA - Elizadle Osvaldo,dni-16731904,1.1.2.6.49,,,8,8,49,,,,,
101,CUENTA - Dulko Jorge Luis,dni-16214470,1.1.2.6.50,,,8,8,50,,,,,
102,CUENTA - Zanek Evelin,dni-33864620,1.1.2.6.51,,,8,8,51,,,,,
103,CUENTA - Paiva Marcos,dni-32375867,1.1.2.6.52,,,8,8,52,,,,,
104,CUENTA - Reshetina Tatiana,dni-19014303,1.1.2.6.53,,,8,8,53,,,,,
105,CUENTA - Mosdien Fanny,dni-24792329,1.1.2.6.54,,,8,8,54,,,,,
106,CUENTA - Espindola Mauro,dni-30120461,1.1.2.6.55,,,8,8,55,,,,,
107,CUENTA - Morales Martin,dni-30871574,1.1.2.6.56,,,8,8,56,,,,,
108,CUENTA - COOPERATIVA DE VIVIENDA  CREDITO CONSUMO Y SERVICIOS SOCIA,cuit-30694625114,1.1.2.6.57,,,8,8,57,,,,,
109,CUENTA - Cybulski Luciano,dni-17829702,1.1.2.6.58,,,8,8,58,,,,,
110,CUENTA - Guimarains Karina,dni-27433917,1.1.2.6.59,,,8,8,59,,,,,
111,CUENTA - Gorosito Monica,dni-12424299,1.1.2.6.60,,,8,8,60,,,,,
112,CUENTA - Pero Maria del Pilar,dni-16117993,1.1.2.6.61,,,8,8,61,,,,,
113,CUENTA - Bravo Guillermo,dni-29552289,1.1.2.6.62,,,8,8,62,,,,,
114,CUENTA - ALIMAK S.R.L.,cuit-30712033882,1.1.2.6.63,,,8,8,63,,,,,
115,CUENTA - Lopez Luis,dni-30790540,1.1.2.6.64,,,8,8,64,,,,,
116,CUENTA - Jung Lucas Jose,dni-40194628,1.1.2.6.65,,,8,8,65,,,,,
117,CUENTA - Lopez Leandro Andres,dni-35010638,1.1.2.6.66,,,8,8,66,,,,,
118,CUENTA - Darnet Valeria,dni-29794002,1.1.2.6.67,,,8,8,67,,,,,
119,CUENTA - Crotti Lucas Jose,dni-22572594,1.1.2.6.68,,,8,8,68,,,,,
120,CUENTA - Galeano Victor,dni-29378477,1.1.2.6.69,,,8,8,69,,,,,
121,CUENTA - Gomez Marcela,dni-30233766,1.1.2.6.70,,,8,8,70,,,,,
122,CUENTA - Krujoski Cristian,dni-27998752,1.1.2.6.71,,,8,8,71,,,,,
123,CUENTA - Olofsson Luis,dni-14636903,1.1.2.6.72,,,8,8,72,,,,,
124,CUENTA - Okulovich Sergio Miguel,dni-11009623,1.1.2.6.73,,,8,8,73,,,,,
125,CUENTA - Zidosky Cesar Fabián,dni-29215329,1.1.2.6.74,,,8,8,74,,,,,
126,CUENTA - Mereles Martin,dni-36462071,1.1.2.6.75,,,8,8,75,,,,,
127,CUENTA - Cukla Karin,dni-37801524,1.1.2.6.76,,,8,8,76,,,,,
128,CUENTA - Martinez Miguel Angel,dni-25814314,1.1.2.6.77,,,8,8,77,,,,,
129,CUENTA - De Lima Amelia del Carmen,dni-22768829,1.1.2.6.78,,,8,8,78,,,,,
130,CUENTA - URRUTIA ENRIQUE ANDRES,cuit-23347352039,1.1.2.6.79,,,8,8,79,,,,,
131,CUENTA - Borre Rosana Maria Belen,dni-24762128,1.1.2.6.80,,,8,8,80,,,,,
132,CUENTA - Maili German Eduardo,dni-40447371,1.1.2.6.81,,,8,8,81,,,,,
133,CUENTA - Galeano Karina,dni-27300093,1.1.2.6.82,,,8,8,82,,,,,
134,CUENTA - Gertrudis Pimenta Ramona,dni-20511422,1.1.2.6.83,,,8,8,83,,,,,
135,CUENTA - Golke Gabriel,dni-27434032,1.1.2.6.84,,,8,8,84,,,,,
136,CUENTA - Tognola Valeria Antonieta,dni-33243782,1.1.2.6.85,,,8,8,85,,,,,
137,CUENTA - Kluje Andrea,dni-25192416,1.1.2.6.86,,,8,8,86,,,,,
138,CUENTA - LIESENFELD LUIS ALEJANDRO,cuit-20255002571,1.1.2.6.87,,,8,8,87,,,,,
139,CUENTA - Navarro Alejandro,dni-39371185,1.1.2.6.88,,,8,8,88,,,,,
140,CUENTA - Chamorro Dario,dni-32041772,1.1.2.6.89,,,8,8,89,,,,,
141,CUENTA - Espíndola Pedro Pablo,dni-17298161,1.1.2.6.90,,,8,8,90,,,,,
142,CUENTA - Amarilla Nancy Mabel,dni-36458237,1.1.2.6.91,,,8,8,91,,,,,
143,CUENTA - Pless Liliana,dni-30363415,1.1.2.6.92,,,8,8,92,,,,,
144,CUENTA - De la Fuente Juan,dni-32999607,1.1.2.6.93,,,8,8,93,,,,,
145,CUENTA - Babenco Roberto Carlos,dni-29378304,1.1.2.6.94,,,8,8,94,,,,,
146,CUENTA - Okulovich Tatiana,dni-30575573,1.1.2.6.95,,,8,8,95,,,,,
147,CUENTA - Bogado Dario Sergio,dni-27903803,1.1.2.6.96,,,8,8,96,,,,,
148,CUENTA - Kruyelniski Rafael Eduardo,dni-30983801,1.1.2.6.97,,,8,8,97,,,,,
149,CUENTA - Fontana Fernanda,dni-30120493,1.1.2.6.98,,,8,8,98,,,,,
150,CUENTA - Hirschfeld Clara,dni-13826385,1.1.2.6.99,,,8,8,99,,,,,
151,CUENTA - Moreno Daniela,dni-37116656,1.1.2.6.100,,,8,8,100,,,,,
152,CUENTA - Feversani Ernesto,dni-5093778,1.1.2.6.101,,,8,8,101,,,,,
153,CUENTA - Gomez Abal Horacio,dni-27100491,1.1.2.6.102,,,8,8,102,,,,,
154,CUENTA - Cortine Natalia Ester,cuit-27287434427,1.1.2.6.103,,,8,8,103,,,,,
155,CUENTA - Tavarez Matilde Ana,dni-6557663,1.1.2.6.104,,,8,8,104,,,,,
156,CUENTA - Kurrle Hugo,dni-22616372,1.1.2.6.105,,,8,8,105,,,,,
157,CUENTA - Dzubuk Pedro Andrés,dni-26487477,1.1.2.6.106,,,8,8,106,,,,,
158,CUENTA - Quinteros Maria Magdalena,dni-6483202,1.1.2.6.107,,,8,8,107,,,,,
159,CUENTA - Scheeren María Isabel,dni-28510044,1.1.2.6.108,,,8,8,108,,,,,
160,CUENTA - Staudt Cesar Martin,dni-26851508,1.1.2.6.109,,,8,8,109,,,,,
161,CUENTA - Trela Eliane Elizabett,dni-30361229,1.1.2.6.110,,,8,8,110,,,,,
162,CUENTA - Schock Leonardo,dni-34002953,1.1.2.6.111,,,8,8,111,,,,,
163,CUENTA - Weiss Mariana,dni-34053688,1.1.2.6.112,,,8,8,112,,,,,
164,CUENTA - Cerdan Alejandra Ayelen,dni-38138850,1.1.2.6.113,,,8,8,113,,,,,
165,CUENTA - Zárate Ramón Antonio,dni-31969698,1.1.2.6.114,,,8,8,114,,,,,
166,CUENTA - Vallejos Ariana,dni-31786536,1.1.2.6.115,,,8,8,115,,,,,
167,CUENTA - Antoñuk Sebastián Antonio,dni-29989101,1.1.2.6.116,,,8,8,116,,,,,
168,CUENTA - Rech Paula Susana,dni-25803382,1.1.2.6.117,,,8,8,117,,,,,
169,CUENTA - Morales Juan Carlos,dni-14063490,1.1.2.6.118,,,8,8,118,,,,,
170,CUENTA - Felix Solange,dni-93854913,1.1.2.6.119,,,8,8,119,,,,,
171,CUENTA - Conde Andrea,dni-36268301,1.1.2.6.120,,,8,8,120,,,,,
172,CUENTA - Heppner Claudia Rosana,dni-21301841,1.1.2.6.121,,,8,8,121,,,,,
173,CUENTA - Neudeck Gustavo Alejandro,dni-34734607,1.1.2.6.122,,,8,8,122,,,,,
174,CUENTA - Autopartes C&S S.R.L.,cuit-33712002439,1.1.2.6.123,,,8,8,123,,,,,
175,CUENTA - Barbaro Elva Judith (Lili),dni-5327810,1.1.2.6.124,,,8,8,124,,,,,
176,CUENTA - Correa Julia,dni-25500550,1.1.2.6.125,,,8,8,125,,,,,
177,CUENTA - Weiss Jorge,dni-31786435,1.1.2.6.126,,,8,8,126,,,,,
178,CUENTA - Molina Silvio Fabian,dni-17378100,1.1.2.6.127,,,8,8,127,,,,,
179,CUENTA - Hudechek Cristian,dni-32884646,1.1.2.6.128,,,8,8,128,,,,,
180,CUENTA - Pistch Alejandro Martín,dni-37221851,1.1.2.6.129,,,8,8,129,,,,,
181,CUENTA - Gonzalez Tamara,dni-39223392,1.1.2.6.130,,,8,8,130,,,,,
182,CUENTA - Andersson Hernan,dni-28466180,1.1.2.6.131,,,8,8,131,,,,,
183,CUENTA - Pavon Santiago Rafael,dni-29212900,1.1.2.6.132,,,8,8,132,,,,,
184,CUENTA - Look Teresa,dni-25793551,1.1.2.6.133,,,8,8,133,,,,,
185,CUENTA - Bangel Hernan Javier,dni-27433736,1.1.2.6.134,,,8,8,134,,,,,
186,CUENTA - Poupeau Pablo Armando,dni-17850744,1.1.2.6.135,,,8,8,135,,,,,
187,CUENTA - Correa Leonardo Daniel,dni-18210027,1.1.2.6.136,,,8,8,136,,,,,
188,CUENTA - CORRO ALVARO MARIANO,cuit-20132810061,1.1.2.6.137,,,8,8,137,,,,,
189,CUENTA - Suligoy Matias Gabriel,dni-39723011,1.1.2.6.138,,,8,8,138,,,,,
190,CUENTA - Dutra Angel Vicente,dni-20890407,1.1.2.6.139,,,8,8,139,,,,,
191,CUENTA - Fleitas Carlos Roberto,dni-28059928,1.1.2.6.140,,,8,8,140,,,,,
192,CUENTA - Cordoba Andres,dni-2937817,1.1.2.6.141,,,8,8,141,,,,,
193,CUENTA - Zarratea Fernando,dni-32041741,1.1.2.6.142,,,8,8,142,,,,,
194,CUENTA - Poliszuk Miriam Raquel,dni-21304837,1.1.2.6.143,,,8,8,143,,,,,
195,CUENTA - Oliveira Hernan Gabriel,dni-29045198,1.1.2.6.144,,,8,8,144,,,,,
196,CUENTA - Ponce Agustin,dni-40403362,1.1.2.6.145,,,8,8,145,,,,,
197,CUENTA - Centurion Francisca Teresa,dni-11032801,1.1.2.6.146,,,8,8,146,,,,,
198,CUENTA - UN TECHO PARA ARGENTINA ASOCIACION CIVIL,cuit-30708357363,1.1.2.6.147,,,8,8,147,,,,,
199,CUENTA - Soto Sandra Beatriz,dni-21458852,1.1.2.6.148,,,8,8,148,,,,,
200,CUENTA - Gambini Maximiliano,dni-40197970,1.1.2.6.149,,,8,8,149,,,,,
201,CUENTA - Galeano Jose,dni-32042405,1.1.2.6.150,,,8,8,150,,,,,
202,CUENTA - Guinter Adolf,dni-23099843,1.1.2.6.151,,,8,8,151,,,,,
203,CUENTA - Albrecht Eugenio,dni-25496835,1.1.2.6.152,,,8,8,152,,,,,
204,CUENTA - CIRBLA S.R.L.,cuit-30711838445,1.1.2.6.153,,,8,8,153,,,,,
205,CUENTA - Maciel De Lima Alberto Fabian,dni-40042028,1.1.2.6.154,,,8,8,154,,,,,
206,CUENTA - Gonzalez Omar Antonio,dni-21364483,1.1.2.6.155,,,8,8,155,,,,,
207,CUENTA - Correa Juan Ramon,dni-17705130,1.1.2.6.156,,,8,8,156,,,,,
208,CUENTA - Dinter Angel Gustavo,dni-32182428,1.1.2.6.157,,,8,8,157,,,,,
209,CUENTA - Bistoletti Gino Leoni,dni-41091554,1.1.2.6.158,,,8,8,158,,,,,
210,CUENTA - Umfuhrer Ruben Anibal,dni-29378429,1.1.2.6.159,,,8,8,159,,,,,
211,CUENTA - Rodriguez Maria Cecilia,dni-32844646,1.1.2.6.160,,,8,8,160,,,,,
212,CUENTA - Dos Santos Claudia Maria,dni-25814337,1.1.2.6.161,,,8,8,161,,,,,
213,CUENTA - Pereira Orlando Ruben,dni-26306021,1.1.2.6.162,,,8,8,162,,,,,
214,CUENTA - Haureluk Alexander Omar,dni-35012614,1.1.2.6.163,,,8,8,163,,,,,
215,CUENTA - Jairo Samuel Ignacio,dni-33731312,1.1.2.6.164,,,8,8,164,,,,,
216,CUENTA - Martinez Milet Victor,cuit-20365153672,1.1.2.6.165,,,8,8,165,,,,,
217,CUENTA - Zibecchi Marcela del Carmen,dni-30983718,1.1.2.6.166,,,8,8,166,,,,,
218,CUENTA - Itati Ozuna Florencia,dni-34856118,1.1.2.6.167,,,8,8,167,,,,,
219,CUENTA - Ramirez Daniel Ricardo,dni-31910413,1.1.2.6.168,,,8,8,168,,,,,
220,CUENTA - Krujoski Orlando Javier,dni-25622657,1.1.2.6.169,,,8,8,169,,,,,
221,CUENTA - Jaroszuk Fabian Ariel,dni-32182488,1.1.2.6.170,,,8,8,170,,,,,
222,CUENTA - Moreira Jose Gabriel,dni-23099902,1.1.2.6.171,,,8,8,171,,,,,
223,CUENTA - Vargas Fabiana Janette,dni-31786375,1.1.2.6.172,,,8,8,172,,,,,
224,CUENTA - Diaz Diego Anibal,dni-37582980,1.1.2.6.173,,,8,8,173,,,,,
225,CUENTA - Rodriguez Nancy Elizabeth,dni-24008319,1.1.2.6.174,,,8,8,174,,,,,
226,CUENTA - Benitez Maria Laura,dni-30871592,1.1.2.6.175,,,8,8,175,,,,,
227,CUENTA - Rodriguez Jose Martin,dni-28610811,1.1.2.6.176,,,8,8,176,,,,,
228,CUENTA - Figueroa Sergio,dni-23498801,1.1.2.6.177,,,8,8,177,,,,,
229,CUENTA - Olofsson Ricardo Renee,dni-16146280,1.1.2.6.178,,,8,8,178,,,,,
230,CUENTA - Gomez Veronica Viviana,dni-31142031,1.1.2.6.179,,,8,8,179,,,,,
231,CUENTA - Kurtz Cinthia Belem,dni-36059415,1.1.2.6.180,,,8,8,180,,,,,
232,CUENTA - Agli Gladis Yolanda,dni-29378370,1.1.2.6.181,,,8,8,181,,,,,
233,CUENTA - Charkiewicz Diego Gabriel,dni-34741967,1.1.2.6.182,,,8,8,182,,,,,
234,CUENTA - Obermann Alan Ezequiel,dni-33456707,1.1.2.6.183,,,8,8,183,,,,,
235,CUENTA - Parroquia Santisima Trinidad,cuit-30649228147,1.1.2.6.184,,,8,8,184,,,,,
236,CUENTA - Oviedo Oscar Bartolome,dni-92767655,1.1.2.6.185,,,8,8,185,,,,,
237,CUENTA - Alvarez Valeria Haydee,dni-39351553,1.1.2.6.186,,,8,8,186,,,,,
238,CUENTA - Techeira Camilo Eugenio,dni-30075325,1.1.2.6.187,,,8,8,187,,,,,
239,CUENTA - Marquez Emmanuel Jesus,dni-35695069,1.1.2.6.188,,,8,8,188,,,,,
240,CUENTA - Hulgren Teresa,dni-23500398,1.1.2.6.189,,,8,8,189,,,,,
241,CUENTA - Ramirez Crispina,dni-6156136,1.1.2.6.190,,,8,8,190,,,,,
242,CUENTA - Gershnik Vanesa,dni-22818248,1.1.2.6.191,,,8,8,191,,,,,
243,CUENTA - Diaz Gaston,dni-22531399,1.1.2.6.192,,,8,8,192,,,,,
244,CUENTA - Kropp Vanessa Noemi,dni-34735105,1.1.2.6.193,,,8,8,193,,,,,
245,CUENTA - Rodriguez Andres Jairo,dni-3058689,1.1.2.6.194,,,8,8,194,,,,,
246,CUENTA - Dinter Cristian Jacobo,dni-28288179,1.1.2.6.195,,,8,8,195,,,,,
247,CUENTA - Centurion Miriam Raquel,dni-30872432,1.1.2.6.196,,,8,8,196,,,,,
248,CUENTA - Rolin Hector,dni-25951352,1.1.2.6.197,,,8,8,197,,,,,
249,CUENTA - Closs Octavio Alberto,dni-37082885,1.1.2.6.198,,,8,8,198,,,,,
250,CUENTA - INDUSTRIAL DREWNA S.R.L.,cuit-30715114050,1.1.2.6.199,,,8,8,199,,,,,
251,CUENTA - Braun Martin,dni-31468985,1.1.2.6.200,,,8,8,200,,,,,
252,CUENTA - Obermann Micaela,dni-37971668,1.1.2.6.201,,,8,8,201,,,,,
253,CUENTA - SUCESION DE SARTORI HECTOR ANIBAL,cuit-20075515260,1.1.2.6.202,,,8,8,202,,,,,
254,CUENTA - Duda  Claudia Ines / Kukla,dni-17807840,1.1.2.6.203,,,8,8,203,,,,,
255,CUENTA - Garcia Fatima Lorena,dni-25803325,1.1.2.6.204,,,8,8,204,,,,,
256,CUENTA - ASOCIACION CIVIL COOPERADORA I.T.E.P. N 2 ACCITEP,cuit-30714592307,1.1.2.6.205,,,8,8,205,,,,,
257,CUENTA - Vera  Rosa Isabel,dni-17693462,1.1.2.6.206,,,8,8,206,,,,,
258,CUENTA - Garay Myriam Lujan,dni-17427562,1.1.2.6.207,,,8,8,207,,,,,
259,CUENTA - Lukoski Angela,dni-4185077,1.1.2.6.208,,,8,8,208,,,,,
260,CUENTA - Pereyra Pigerl Laura Ines,dni-14335477,1.1.2.6.209,,,8,8,209,,,,,
261,CUENTA - Colucci José Luis,dni-14641438,1.1.2.6.210,,,8,8,210,,,,,
262,CUENTA - petrovski Monica Ernestina,dni-24218972,1.1.2.6.211,,,8,8,211,,,,,
263,CUENTA - SERVICIOS AGRICOLAS COMERCIALES S.A.,cuit-30714347191,1.1.2.6.212,,,8,8,212,,,,,
264,CUENTA - Aguerre Viviana,dni-27446238,1.1.2.6.213,,,8,8,213,,,,,
265,CUENTA - Naumtchuk Victor José,dni-20408005,1.1.2.6.214,,,8,8,214,,,,,
266,CUENTA - Pabes Karyna Rossana,dni-29895710,1.1.2.6.215,,,8,8,215,,,,,
267,CUENTA - Mattive Patricia Leonor,dni-33611896,1.1.2.6.216,,,8,8,216,,,,,
268,CUENTA - Novosad Luba Elena,dni-5463149,1.1.2.6.217,,,8,8,217,,,,,
269,CUENTA - Trela Karina Ester,dni-24486876,1.1.2.6.218,,,8,8,218,,,,,
270,CUENTA - Cantero Eduardo Demetrio,dni-30752933,1.1.2.6.219,,,8,8,219,,,,,
271,CUENTA - Braun Marcos,dni-39946680,1.1.2.6.220,,,8,8,220,,,,,
272,CUENTA - Finke Hector Norberto,dni-20495977,1.1.2.6.221,,,8,8,221,,,,,
273,CUENTA - Rojas Juan Dario,dni-31629442,1.1.2.6.222,,,8,8,222,,,,,
274,CUENTA - MACOVALLE S.A.,cuit-30583112797,1.1.2.6.223,,,8,8,223,,,,,
275,CUENTA - CASTRO JOSE LUIS,cuit-20213012968,1.1.2.6.224,,,8,8,224,,,,,
276,CUENTA - Loreiro Horacio Guido,dni-16146165,1.1.2.6.225,,,8,8,225,,,,,
277,CUENTA - Gliñeñuck Hugo Rafael,dni-32414995,1.1.2.6.226,,,8,8,226,,,,,
278,CUENTA - Sansoni Andres,dni-18083396,1.1.2.6.227,,,8,8,227,,,,,
279,CUENTA - Kaszuba Norberto Julián,dni-32512929,1.1.2.6.228,,,8,8,228,,,,,
280,CUENTA - Such Eugenia,dni-29143043,1.1.2.6.229,,,8,8,229,,,,,
281,CUENTA - Chejovich Rene Rodrigo,dni-40198633,1.1.2.6.230,,,8,8,230,,,,,
282,CUENTA - MUNICIPALIDAD DE ARISTOBULO DEL VALLE,cuit-30672348192,1.1.2.6.231,,,8,8,231,,,,,
283,CUENTA - Muller Mario Fabian,dni-30753202,1.1.2.6.232,,,8,8,232,,,,,
284,CUENTA - Veloso Cesar,dni-20084973,1.1.2.6.233,,,8,8,233,,,,,
285,CUENTA - Hanatzki Mirian Noemi,dni-22459151,1.1.2.6.234,,,8,8,234,,,,,
286,CUENTA - Jakinchuk Cristian Rafael,dni-29868554,1.1.2.6.235,,,8,8,235,,,,,
287,CUENTA - Romero Guillermo Enrique,dni-34577624,1.1.2.6.236,,,8,8,236,,,,,
288,CUENTA - RUIZ ISMAEL SILVIO MARIANO,dni-30752836,1.1.2.6.237,,,8,8,237,,,,,
289,CUENTA - WOLEMBERG GULLERMO ALBERTO,cuit-20249132943,1.1.2.6.238,,,8,8,238,,,,,
290,CUENTA - Gimenez  Patricia Liliana,dni-23204458,1.1.2.6.239,,,8,8,239,,,,,
291,CUENTA - Krieger Paola,dni-30560104,1.1.2.6.240,,,8,8,240,,,,,
292,CUENTA - Elena Carlos Nicolas,dni-31568705,1.1.2.6.241,,,8,8,241,,,,,
293,CUENTA - Medina Ruben Daniel,dni-12536784,1.1.2.6.242,,,8,8,242,,,,,
294,CUENTA - Sotelo Ochoa Denis Umberto,dni-94264620,1.1.2.6.243,,,8,8,243,,,,,
295,CUENTA - Gajo Construcciones SRL,cuit-30711999120,1.1.2.6.244,,,8,8,244,,,,,
296,CUENTA - Rodriguez Liza,dni-37002815,1.1.2.6.245,,,8,8,245,,,,,
297,CUENTA - Niveyro Nélida Carmen,dni-28466223,1.1.2.6.246,,,8,8,246,,,,,
298,CUENTA - Baumann Flavia Cristina,dni-30370473,1.1.2.6.247,,,8,8,247,,,,,
299,CUENTA - Caselli Rosa Ana,dni-22085329,1.1.2.6.248,,,8,8,248,,,,,
300,CUENTA - Alaniz Miriam Silvana,dni-24597803,1.1.2.6.249,,,8,8,249,,,,,
301,CUENTA - Miqueo Rosalino,dni-11281646,1.1.2.6.250,,,8,8,250,,,,,
302,CUENTA - Fernandez Cristian,dni-32435236,1.1.2.6.251,,,8,8,251,,,,,
303,CUENTA - Cáceres Miguel angel,dni-26354010,1.1.2.6.252,,,8,8,252,,,,,
304,CUENTA - Dinter Claudio Rafael,dni-33613053,1.1.2.6.253,,,8,8,253,,,,,
305,CUENTA - MENDOZA  PETRONA SOLEDAD,dni-34837071,1.1.2.6.254,,,8,8,254,,,,,
306,CUENTA - SIRUK KARINA ANDREA,dni-29347032,1.1.2.6.255,,,8,8,255,,,,,
307,CUENTA - BARBARO LAURA ELISA,dni-35012355,1.1.2.6.256,,,8,8,256,,,,,
308,CUENTA - Ferreyra Cinthia Lucila,dni-39526226,1.1.2.6.257,,,8,8,257,,,,,
309,CUENTA - Lombardi Carlos Rubén,dni-28059868,1.1.2.6.258,,,8,8,258,,,,,
310,CUENTA - Diaz Juan Alberto,dni-17261454,1.1.2.6.259,,,8,8,259,,,,,
311,CUENTA - Fonseca Gabriel Alejandro,dni-28552771,1.1.2.6.260,,,8,8,260,,,,,
312,CUENTA - Montivero Quiroga Hector David,dni-14356939,1.1.2.6.261,,,8,8,261,,,,,
313,CUENTA - Cantero Maria Adelina,dni-24835903,1.1.2.6.262,,,8,8,262,,,,,
314,CUENTA - Penassol Dos Santos Clací,dni-93969455,1.1.2.6.263,,,8,8,263,,,,,
315,CUENTA - Rendón Luis Eduardo,dni-10001282,1.1.2.6.264,,,8,8,264,,,,,
316,CUENTA - Soza Yessica Analía,dni-32304164,1.1.2.6.265,,,8,8,265,,,,,
317,CUENTA - ZINK MONICA ADRIANA,dni-25522412,1.1.2.6.266,,,8,8,266,,,,,
318,CUENTA - Viera Paola Marysil,dni-40196634,1.1.2.6.267,,,8,8,267,,,,,
319,CUENTA - WESNER LUCAS MANUEL,dni-36553885,1.1.2.6.268,,,8,8,268,,,,,
320,CUENTA - PRETTE JUAN MANUEL,dni-38039903,1.1.2.6.269,,,8,8,269,,,,,
321,CUENTA - SEMERENKO PABLO HORACIO,dni-22016201,1.1.2.6.270,,,8,8,270,,,,,
322,CUENTA - Okulovich Eva,dni-12053704,1.1.2.6.271,,,8,8,271,,,,,
323,CUENTA - RIGO PAOLO,dni-34356143,1.1.2.6.272,,,8,8,272,,,,,
324,CUENTA - DURAN  FABIO LUIS,dni-29760327,1.1.2.6.273,,,8,8,273,,,,,
325,CUENTA - GARCIA LORENZO EMILIANO JESUS,dni-38040094,1.1.2.6.274,,,8,8,274,,,,,
326,CUENTA - Correa Miriam Raquel,dni-25522492,1.1.2.6.275,,,8,8,275,,,,,
327,CUENTA - JEFATURA DE POLICIA DE MISIONES,cuit-30672394631,1.1.2.6.276,,,8,8,276,,,,,
328,CUENTA - Quevedo Nelson,dni-14595775,1.1.2.6.277,,,8,8,277,,,,,
329,CUENTA - HULET RIQUELME PABLO,dni-14963580,1.1.2.6.278,,,8,8,278,,,,,
330,CUENTA - Diaz Carla,dni-34892410,1.1.2.6.279,,,8,8,279,,,,,
331,CUENTA - ROGGENSACK MIRIAN GUERTA,dni-25160441,1.1.2.6.280,,,8,8,280,,,,,
332,CUENTA - I.E.A. Nº 14 ESCUELA,cuit-30687847195,1.1.2.6.281,,,8,8,281,,,,,
333,CUENTA - Alvarez María Estela,dni-20728314,1.1.2.6.282,,,8,8,282,,,,,
334,CUENTA - Sanabria Adrián Emmanuel,dni-38379305,1.1.2.6.283,,,8,8,283,,,,,
335,CUENTA - Palacios Lucas,dni-32244048,1.1.2.6.284,,,8,8,284,,,,,
336,CUENTA - Pedrozo Alejandro,dni-37156847,1.1.2.6.285,,,8,8,285,,,,,
337,CUENTA - Kuzco María Esther,dni-18438663,1.1.2.6.286,,,8,8,286,,,,,
338,CUENTA - Grün Natalia Micaela,dni-33864408,1.1.2.6.287,,,8,8,287,,,,,
339,CUENTA - Acosta Ezequiel,dni-36458176,1.1.2.6.288,,,8,8,288,,,,,
340,CUENTA - Gruber Miguel Angel,dni-33720665,1.1.2.6.289,,,8,8,289,,,,,
341,CUENTA - Joves Miriam Pamela,dni-26487229,1.1.2.6.290,,,8,8,290,,,,,
342,CUENTA - DON FRANCISCO S.R.L.,cuit-30510915638,1.1.2.6.291,,,8,8,291,,,,,
343,CUENTA - Eleuterio Jorge Oscar,dni-24130889,1.1.2.6.292,,,8,8,292,,,,,
344,CUENTA - Neris Franco,dni-41633015,1.1.2.6.293,,,8,8,293,,,,,
345,CUENTA - Quiroz Florencia,dni-30560458,1.1.2.6.294,,,8,8,294,,,,,
346,CUENTA - Frutos Norma Cristina,dni-21149831,1.1.2.6.295,,,8,8,295,,,,,
347,CUENTA - Principe Cordova Elias Jose,dni-94121566,1.1.2.6.296,,,8,8,296,,,,,
348,CUENTA - Mazurek Analia Ines,dni-26487428,1.1.2.6.297,,,8,8,297,,,,,
349,CUENTA - Kreder Sebastian,dni-29502431,1.1.2.6.298,,,8,8,298,,,,,
350,CUENTA - Acosta Mauricio,dni-39638387,1.1.2.6.299,,,8,8,299,,,,,
351,CUENTA - Dosantos Carmen Isabel,dni-23254153,1.1.2.6.300,,,8,8,300,,,,,
352,CUENTA - Nuñez Alejandro Fabián,dni-20819629,1.1.2.6.301,,,8,8,301,,,,,
353,CUENTA - De Olivera Patricia,dni-31759968,1.1.2.6.302,,,8,8,302,,,,,
354,CUENTA - Nauschuetz Aldo Gustavo,dni-29819663,1.1.2.6.303,,,8,8,303,,,,,
355,CUENTA - Kusik Marcos Marcelo,dni-24792327,1.1.2.6.304,,,8,8,304,,,,,
356,CUENTA - Fernandez Cintia Daniela,dni-30120273,1.1.2.6.305,,,8,8,305,,,,,
357,CUENTA - Makaruk Willians Marcos,dni-26320066,1.1.2.6.306,,,8,8,306,,,,,
358,CUENTA - Gurawski Anibal Gabriel,dni-20578695,1.1.2.6.307,,,8,8,307,,,,,
359,CUENTA - Heppner Cristhian Mauro,dni-30120202,1.1.2.6.308,,,8,8,308,,,,,
360,CUENTA - Barboza Carlos Andres,dni-30361627,1.1.2.6.309,,,8,8,309,,,,,
361,CUENTA - Gunther Christian,dni-24616800,1.1.2.6.310,,,8,8,310,,,,,
362,CUENTA - Centurion Ariel Antonino,dni-25500388,1.1.2.6.311,,,8,8,311,,,,,
363,CUENTA - Greff Fabian Javier,dni-31011894,1.1.2.6.312,,,8,8,312,,,,,
364,CUENTA - Paniagua Eladio Emanuel,dni-30871752,1.1.2.6.313,,,8,8,313,,,,,
365,CUENTA - Escobar Alberto Oscar,dni-32512720,1.1.2.6.314,,,8,8,314,,,,,
366,CUENTA - Lorenzo Roberto Anibal,dni-24792346,1.1.2.6.315,,,8,8,315,,,,,
367,CUENTA - Mielniczuk Julio,dni-32551401,1.1.2.6.316,,,8,8,316,,,,,
368,CUENTA - Nevendorf Sara Mercedes,dni-16342252,1.1.2.6.317,,,8,8,317,,,,,
369,CUENTA - Guglielmi Graciela Beatriz,dni-10746343,1.1.2.6.318,,,8,8,318,,,,,
370,CUENTA - Silva Hector Javier,dni-23500145,1.1.2.6.319,,,8,8,319,,,,,
371,CUENTA - Maidana Cristian Daniel,dni-38313875,1.1.2.6.320,,,8,8,320,,,,,
372,CUENTA - Boichuk Johana Micaela,dni-38138559,1.1.2.6.321,,,8,8,321,,,,,
373,CUENTA - Kupczyszyn Alexis Dario,dni-25496664,1.1.2.6.322,,,8,8,322,,,,,
374,CUENTA - Olmedo Julio César,dni-36744175,1.1.2.6.323,,,8,8,323,,,,,
375,CUENTA - Mereles Alfredo,dni-28059830,1.1.2.6.324,,,8,8,324,,,,,
376,CUENTA - Beker Natalia Yathur,dni-27675141,1.1.2.6.325,,,8,8,325,,,,,
377,CUENTA - Suireszcz Ruben,dni-16170260,1.1.2.6.326,,,8,8,326,,,,,
378,CUENTA - Harmut Haydee Luisa,dni-17164768,1.1.2.6.327,,,8,8,327,,,,,
379,CUENTA - Mendez Cesar,dni-35011825,1.1.2.6.328,,,8,8,328,,,,,
380,CUENTA - Iguri Carlos Roberto,dni-20494220,1.1.2.6.329,,,8,8,329,,,,,
381,CUENTA - Pacheco Micaela,dni-39229066,1.1.2.6.330,,,8,8,330,,,,,
382,CUENTA - Bogdan Fernando,dni-31914340,1.1.2.6.331,,,8,8,331,,,,,
383,CUENTA - cardozo daniel alejandro,dni-32041624,1.1.2.6.332,,,8,8,332,,,,,
384,CUENTA - Trinidad Martin Sebastian,dni-32729560,1.1.2.6.333,,,8,8,333,,,,,
385,CUENTA - Gomez da Silva Fabian Ariel,dni-14985771,1.1.2.6.334,,,8,8,334,,,,,
386,CUENTA - De Oliveira Oscar,dni-30361455,1.1.2.6.335,,,8,8,335,,,,,
387,CUENTA - Camacho Ramón Ariel,dni-27997833,1.1.2.6.336,,,8,8,336,,,,,
388,CUENTA - Ludtke Claudio Marcelo,dni-22646862,1.1.2.6.337,,,8,8,337,,,,,
389,CUENTA - Nativas y Forestales SRL Cinthia,cuit-30683238283,1.1.2.6.338,,,8,8,338,,,,,
390,CUENTA - Rudakoff Jonathan Emanuel,dni-39638519,1.1.2.6.339,,,8,8,339,,,,,
391,CUENTA - Da Silva Alan,dni-32304018,1.1.2.6.340,,,8,8,340,,,,,
392,CUENTA - Aguilar Angel Daniel,dni-26487252,1.1.2.6.341,,,8,8,341,,,,,
393,CUENTA - Troche Luis Alberto,dni-24637055,1.1.2.6.342,,,8,8,342,,,,,
394,CUENTA - Diaz Maria Estela,dni-16944453,1.1.2.6.343,,,8,8,343,,,,,
395,CUENTA - J LLORENTE Y CIA S. A.,cuit-30529808069,1.1.2.6.344,,,8,8,344,,,,,
396,CUENTA - CAPS- Direccion Zona de Salud Centro Uruguay Luis encargado de pagos- Diego Aguirre,cuit-30683256400,1.1.2.6.345,,,8,8,345,,,,,
397,CUENTA - Bilinski Raul,dni-18210691,1.1.2.6.346,,,8,8,346,,,,,
398,CUENTA - Rivero Claudia Patricia,dni-24985336,1.1.2.6.347,,,8,8,347,,,,,
399,CUENTA - Villegas Oscar Abraham,dni-18476876,1.1.2.6.348,,,8,8,348,,,,,
400,CUENTA - Mazzoletti Manuel Armando,dni-27782177,1.1.2.6.349,,,8,8,349,,,,,
401,CUENTA - Marquez Ramona Lidia,dni-24086008,1.1.2.6.350,,,8,8,350,,,,,
402,CUENTA - Berling Tania Janet,dni-36471086,1.1.2.6.351,,,8,8,351,,,,,
403,CUENTA - Nilsson Victor Luis,dni-14636741,1.1.2.6.352,,,8,8,352,,,,,
404,CUENTA - Schallmoser Hannelies,dni-22286699,1.1.2.6.353,,,8,8,353,,,,,
405,CUENTA - Muller Frida,dni-10724301,1.1.2.6.354,,,8,8,354,,,,,
406,CUENTA - Olivera Cristian Hernan,dni-34894086,1.1.2.6.355,,,8,8,355,,,,,
407,CUENTA - Umfuhrer Claudia Lorena,dni-29552231,1.1.2.6.356,,,8,8,356,,,,,
408,CUENTA - Krombauer Alejandro Fabian,dni-25263796,1.1.2.6.357,,,8,8,357,,,,,
409,CUENTA - DUARTE OSCAR GABRIEL,cuit-20169862991,1.1.2.6.358,,,8,8,358,,,,,
410,CUENTA - Serrano Yanina Gisel,dni-32844711,1.1.2.6.359,,,8,8,359,,,,,
411,CUENTA - Neumann Dora Mabel,dni-25814047,1.1.2.6.360,,,8,8,360,,,,,
412,CUENTA - Losiggio Juan,dni-12367180,1.1.2.6.361,,,8,8,361,,,,,
413,CUENTA - Leiva Mariel,dni-22585561,1.1.2.6.362,,,8,8,362,,,,,
414,CUENTA - Albea  Lidia Cristina,dni-20119320,1.1.2.6.363,,,8,8,363,,,,,
415,CUENTA - Vigliecca Marina Alejandra,dni-30790975,1.1.2.6.364,,,8,8,364,,,,,
416,CUENTA - Batista Ramon angel,dni-26876409,1.1.2.6.365,,,8,8,365,,,,,
417,CUENTA - Ramirez Ignacio Martin,dni-24573400,1.1.2.6.366,,,8,8,366,,,,,
418,CUENTA - Olazar Nesthor Mauricio,dni-36061671,1.1.2.6.367,,,8,8,367,,,,,
419,CUENTA - Feiza Gustavo Omar,dni-23286281,1.1.2.6.368,,,8,8,368,,,,,
420,CUENTA - Bojko Víctor David,dni-14118179,1.1.2.6.369,,,8,8,369,,,,,
421,CUENTA - Boichuk Roberto Felipe,dni-22317830,1.1.2.6.370,,,8,8,370,,,,,
422,CUENTA - Bueno Yonathan Leonardo,dni-32512701,1.1.2.6.371,,,8,8,371,,,,,
423,CUENTA - Ratti Luis Martin,dni-12395847,1.1.2.6.372,,,8,8,372,,,,,
424,CUENTA - Veron Diana Vanesa,dni-27456454,1.1.2.6.373,,,8,8,373,,,,,
425,CUENTA - Horlak Juan Carlos,dni-18063816,1.1.2.6.374,,,8,8,374,,,,,
426,CUENTA - Foos German,dni-34821740,1.1.2.6.375,,,8,8,375,,,,,
427,CUENTA - Koskimies Sandra,dni-18380024,1.1.2.6.376,,,8,8,376,,,,,
428,CUENTA - Dominguez Joel,dni-17685598,1.1.2.6.377,,,8,8,377,,,,,
429,CUENTA - Soarez Carmen de Fatima,dni-28739668,1.1.2.6.378,,,8,8,378,,,,,
430,CUENTA - Urrutia Francisco,dni-29179208,1.1.2.6.379,,,8,8,379,,,,,
431,CUENTA - Yewczuk Emilio Ricardo,dni-16788124,1.1.2.6.380,,,8,8,380,,,,,
432,CUENTA - Rutke Carmen,dni-23788834,1.1.2.6.381,,,8,8,381,,,,,
433,CUENTA - Frank Adrian Nestor,dni-29868522,1.1.2.6.382,,,8,8,382,,,,,
434,CUENTA - Morales  Maria Ernestina,dni-22010536,1.1.2.6.383,,,8,8,383,,,,,
435,CUENTA - Lucero Claudia Cristina,dni-18210692,1.1.2.6.384,,,8,8,384,,,,,
436,CUENTA - Buzin Jose Anibal,dni-32729681,1.1.2.6.385,,,8,8,385,,,,,
437,CUENTA - Koch Cindy Daniela,dni-33735824,1.1.2.6.386,,,8,8,386,,,,,
438,CUENTA - Alvez Jose Armando,dni-31573600,1.1.2.6.387,,,8,8,387,,,,,
439,CUENTA - Krombauer Hector Javier,dni-24886699,1.1.2.6.388,,,8,8,388,,,,,
440,CUENTA - Garcia Pedro Damian,dni-28804038,1.1.2.6.389,,,8,8,389,,,,,
441,CUENTA - Maciel Alejandro,dni-17836309,1.1.2.6.390,,,8,8,390,,,,,
442,CUENTA - Jung Elmiro,dni-92300781,1.1.2.6.391,,,8,8,391,,,,,
443,CUENTA - Bouix Pedro Armando,dni-16676837,1.1.2.6.392,,,8,8,392,,,,,
444,CUENTA - SOLMAR S.R.L.,cuit-30714067636,1.1.2.6.393,,,8,8,393,,,,,
445,CUENTA - Marczuk Paula Alejandra,dni-30120123,1.1.2.6.394,,,8,8,394,,,,,
446,CUENTA - Franco Lourdes Karina,cuit-27311029008,1.1.2.6.395,,,8,8,395,,,,,
447,CUENTA - Wereszczuk David Horacio,dni-40334748,1.1.2.6.396,,,8,8,396,,,,,
448,CUENTA - Guimaraes Tamara Emmanuela,dni-31121763,1.1.2.6.397,,,8,8,397,,,,,
449,CUENTA - Freske Claudia Traudi,dni-13281645,1.1.2.6.398,,,8,8,398,,,,,
450,CUENTA - Esquivel Marcelo Gustavo,dni-16260072,1.1.2.6.399,,,8,8,399,,,,,
451,CUENTA - INGAR S.A.,cuit-30570851868,1.1.2.6.400,,,8,8,400,,,,,
452,CUENTA - Barajovich Susana Maria,dni-5717043,1.1.2.6.401,,,8,8,401,,,,,
453,CUENTA - Obermann Nicolas,dni-35694963,1.1.2.6.402,,,8,8,402,,,,,
454,CUENTA - Romero Julian Exequiel,dni-36095646,1.1.2.6.403,,,8,8,403,,,,,
455,CUENTA - Barchuk Ines Veronica,dni-13665527,1.1.2.6.404,,,8,8,404,,,,,
456,CUENTA - Rios Maria José,dni-29179043,1.1.2.6.405,,,8,8,405,,,,,
457,CUENTA - Biagioni Franco Bruno,dni-41832210,1.1.2.6.406,,,8,8,406,,,,,
458,CUENTA - Bauer Fernando Fabian,dni-36458252,1.1.2.6.407,,,8,8,407,,,,,
459,CUENTA - Pryszczuk Mario Ruben,dni-21305495,1.1.2.6.408,,,8,8,408,,,,,
460,CUENTA - Carballo Juan Antonio,dni-16331234,1.1.2.6.409,,,8,8,409,,,,,
461,CUENTA - Jaskulski Johnatan Jocelito,dni-41617127,1.1.2.6.410,,,8,8,410,,,,,
462,CUENTA - Yuschuk Javier Eugenio,dni-27675117,1.1.2.6.411,,,8,8,411,,,,,
463,CUENTA - Ohashi Diana Virginia,dni-20848352,1.1.2.6.412,,,8,8,412,,,,,
464,CUENTA - Devoto  Ruy Claudir,dni-13829015,1.1.2.6.413,,,8,8,413,,,,,
465,CUENTA - Schlesinger Carolina Elizabeth,dni-31077179,1.1.2.6.414,,,8,8,414,,,,,
466,CUENTA - Frun Sebastian,dni-37221704,1.1.2.6.415,,,8,8,415,,,,,
467,CUENTA - Da Rosa Natalia Romina Yannett,dni-33731005,1.1.2.6.416,,,8,8,416,,,,,
468,CUENTA - Wereszczuk Maximiliano Geremias Manuel,dni-37159386,1.1.2.6.417,,,8,8,417,,,,,
469,CUENTA - Noguera Gabriela Soledad,cuit-27299282916,1.1.2.6.418,,,8,8,418,,,,,
470,CUENTA - Da Silva  José,dni-22727529,1.1.2.6.419,,,8,8,419,,,,,
471,CUENTA - Broenser Ismael,dni-34364419,1.1.2.6.420,,,8,8,420,,,,,
472,CUENTA - Unizoni Mariela,dni-27084143,1.1.2.6.421,,,8,8,421,,,,,
473,CUENTA - Homanchuk Mabel,dni-28355537,1.1.2.6.422,,,8,8,422,,,,,
474,CUENTA - Mieres Vanessa,dni-32304103,1.1.2.6.423,,,8,8,423,,,,,
475,CUENTA - Romero Enzo Fabian,dni-40177866,1.1.2.6.424,,,8,8,424,,,,,
476,CUENTA - Fagundez Maria de los Angeles,dni-25087591,1.1.2.6.425,,,8,8,425,,,,,
477,CUENTA - BAEZ MARCOS,dni-31573742,1.1.2.6.426,,,8,8,426,,,,,
478,CUENTA - Malaquias Miriam Liliana,dni-25661665,1.1.2.6.427,,,8,8,427,,,,,
479,CUENTA - Aguilar Ramon Roque,dni-23556584,1.1.2.6.428,,,8,8,428,,,,,
480,CUENTA - Feiza Ofelia Mirta,dni-17372714,1.1.2.6.429,,,8,8,429,,,,,
481,CUENTA - Pfaffenzeller Valeria Elizabeth,dni-30961128,1.1.2.6.430,,,8,8,430,,,,,
482,CUENTA - Dublesse Yolanda Ines,dni-27564195,1.1.2.6.431,,,8,8,431,,,,,
483,CUENTA - Peinkofer Delia Aidée,dni-12263527,1.1.2.6.432,,,8,8,432,,,,,
484,CUENTA - Caceres Ignacio Roberto,dni-22384591,1.1.2.6.433,,,8,8,433,,,,,
485,CUENTA - Garcia Silvia Ivone,dni-21852644,1.1.2.6.434,,,8,8,434,,,,,
486,CUENTA - Pereira Jorge Luis,dni-17312320,1.1.2.6.435,,,8,8,435,,,,,
487,CUENTA - Sanchez Arturo Ramón,dni-38710353,1.1.2.6.436,,,8,8,436,,,,,
488,CUENTA - Villalba Laura Anabella,dni-35266175,1.1.2.6.437,,,8,8,437,,,,,
489,CUENTA - Solis Karina Soledad,dni-28613654,1.1.2.6.438,,,8,8,438,,,,,
490,CUENTA - Rodriguez De Lima Héctor,dni-24655626,1.1.2.6.439,,,8,8,439,,,,,
491,CUENTA - Milanesio Laura,dni-25690013,1.1.2.6.440,,,8,8,440,,,,,
492,CUENTA - Olivera Bettina Soledad,dni-40984179,1.1.2.6.441,,,8,8,441,,,,,
493,CUENTA - BALLERO SIDNY ALESSANDRA,cuit-27397225556,1.1.2.6.442,,,8,8,442,,,,,
494,CUENTA - Ulfe Gonzalez San Martin Victor Manuel,dni-30517991,1.1.2.6.443,,,8,8,443,,,,,
495,CUENTA - Sandoval Arija Pablo Agustin,dni-39128147,1.1.2.6.444,,,8,8,444,,,,,
496,CUENTA - Hut Anyelo,dni-40195669,1.1.2.6.445,,,8,8,445,,,,,
497,CUENTA - Dutto Manuel José,dni-25170082,1.1.2.6.446,,,8,8,446,,,,,
498,CUENTA - Gimenez Martin Maria Cecilia,dni-41048872,1.1.2.6.447,,,8,8,447,,,,,
499,CUENTA - Gonzalez Patricia Gabriela,dni-30560135,1.1.2.6.448,,,8,8,448,,,,,
500,CUENTA - Koch Ariel Oscar,dni-27434294,1.1.2.6.449,,,8,8,449,,,,,
501,CUENTA - Lima Carina Monica,dni-27997381,1.1.2.6.450,,,8,8,450,,,,,
502,CUENTA - Diaz Joaquin Eduardo,dni-40707937,1.1.2.6.451,,,8,8,451,,,,,
503,CUENTA - Gutman Sonia Andrea,dni-20384584,1.1.2.6.452,,,8,8,452,,,,,
504,CUENTA - Saft Rodrigo Adrian,dni-38189591,1.1.2.6.453,,,8,8,453,,,,,
505,CUENTA - Morales Ivan Luis,dni-33950755,1.1.2.6.454,,,8,8,454,,,,,
506,CUENTA - Yost Angel Ruben,dni-20506221,1.1.2.6.455,,,8,8,455,,,,,
507,CUENTA - Ocampo Cristina,dni-32050475,1.1.2.6.456,,,8,8,456,,,,,
508,CUENTA - EMPECOR S.R.L.,cuit-30707742743,1.1.2.6.457,,,8,8,457,,,,,
509,CUENTA - Horrisberger Luis Alberto,cuit-20122634559,1.1.2.6.458,,,8,8,458,,,,,
510,CUENTA - Delebecq Richard,dni-30361748,1.1.2.6.459,,,8,8,459,,,,,
511,CUENTA - Cantero Martínez Pablo Alejandro,dni-35487852,1.1.2.6.460,,,8,8,460,,,,,
512,CUENTA - Gomez Margarita Beatriz,dni-27999836,1.1.2.6.461,,,8,8,461,,,,,
513,CUENTA - Fiedler Casimiro Sigfrido,dni-7588108,1.1.2.6.462,,,8,8,462,,,,,
514,CUENTA - Instituto Urológico Misiones Kelm Juan Ricardo,dni-8107273,1.1.2.6.463,,,8,8,463,,,,,
515,CUENTA - Olivera Juan Carlos,dni-23794635,1.1.2.6.464,,,8,8,464,,,,,
516,CUENTA - Municipalidad San Ignacio,cuit-30672335953,1.1.2.6.465,,,8,8,465,,,,,
517,CUENTA - Kummritz Gaston,dni-40897884,1.1.2.6.466,,,8,8,466,,,,,
518,CUENTA - Baron Maximiliano Leandro,dni-39723636,1.1.2.6.467,,,8,8,467,,,,,
519,CUENTA - Cabrera Manuel Alberto,dni-17570818,1.1.2.6.468,,,8,8,468,,,,,
520,CUENTA - Oberá Park Weber Berta,cuit-30713414804,1.1.2.6.469,,,8,8,469,,,,,
521,CUENTA - Gluge Julian,dni-40952254,1.1.2.6.470,,,8,8,470,,,,,
522,CUENTA - Medina Ramón,dni-23743200,1.1.2.6.471,,,8,8,471,,,,,
523,CUENTA - Rodriguez Jorge,dni-28555861,1.1.2.6.472,,,8,8,472,,,,,
524,CUENTA - Vargas Lucas Guillermo,dni-31786479,1.1.2.6.473,,,8,8,473,,,,,
525,CUENTA - Gaona Guillermo,dni-23947930,1.1.2.6.474,,,8,8,474,,,,,
526,CUENTA - Giraldo Loaiza Alcibar,dni-94860081,1.1.2.6.475,,,8,8,475,,,,,
527,CUENTA - Marquez Andrea Carolina,dni-31910337,1.1.2.6.476,,,8,8,476,,,,,
528,CUENTA - Cristaldo Maria Alba,dni-34883254,1.1.2.6.477,,,8,8,477,,,,,
529,CUENTA - PREFECTURA NAVAL ARGENTINA,cuit-30546694719,1.1.2.6.478,,,8,8,478,,,,,
530,CUENTA - Waidelich Henry,dni-38063590,1.1.2.6.479,,,8,8,479,,,,,
531,CUENTA - Feversani Karina Andrea,dni-26141059,1.1.2.6.480,,,8,8,480,,,,,
532,CUENTA - Veiga Leandro Alberto,dni-35003982,1.1.2.6.481,,,8,8,481,,,,,
533,CUENTA - Silva Andrea Daniela,dni-25814410,1.1.2.6.482,,,8,8,482,,,,,
534,CUENTA - mendez cintia yicel,dni-34892369,1.1.2.6.483,,,8,8,483,,,,,
535,CUENTA - Leguizamón Camila Araceli,dni-41302093,1.1.2.6.484,,,8,8,484,,,,,
536,CUENTA - Alves Da Silva José Francisco,dni-39641056,1.1.2.6.485,,,8,8,485,,,,,
537,CUENTA - D´Achary Karina Liliana,dni-22032357,1.1.2.6.486,,,8,8,486,,,,,
538,CUENTA - Mareco Torres Raúl Anastasio,dni-23274199,1.1.2.6.487,,,8,8,487,,,,,
539,CUENTA - Weiss Marlene,dni-31786370,1.1.2.6.488,,,8,8,488,,,,,
540,CUENTA - Espínola Leonardo,dni-34978945,1.1.2.6.489,,,8,8,489,,,,,
541,CUENTA - Martinez Fabian Oscar,dni-26358273,1.1.2.6.490,,,8,8,490,,,,,
542,CUENTA - Tonn Melany,dni-41294299,1.1.2.6.491,,,8,8,491,,,,,
543,CUENTA - Pereyra Santiago Gabriel,dni-31571063,1.1.2.6.492,,,8,8,492,,,,,
544,CUENTA - Alenka Darìo Sebastian,dni-38381060,1.1.2.6.493,,,8,8,493,,,,,
545,CUENTA - Diaz Silvia Estela,dni-23762559,1.1.2.6.494,,,8,8,494,,,,,
546,CUENTA - EDINEA SA,cuit-30620608730,1.1.2.6.495,,,8,8,495,,,,,
547,CUENTA - Rivero Gabriel,dni-17652574,1.1.2.6.496,,,8,8,496,,,,,
548,CUENTA - Mello Alejandra Lorena,dni-27819800,1.1.2.6.497,,,8,8,497,,,,,
549,CUENTA - CARSA SA,cuit-33572266449,1.1.2.6.498,,,8,8,498,,,,,
550,CUENTA - Zacarías Hugo Maximiliano,dni-32608767,1.1.2.6.499,,,8,8,499,,,,,
551,CUENTA - Galarza Rocio Ayelen,dni-39820406,1.1.2.6.500,,,8,8,500,,,,,
552,CUENTA - Botteron Fernando,dni-18054759,1.1.2.6.501,,,8,8,501,,,,,
553,CUENTA - Kluge Mónica Ingrid,dni-29012645,1.1.2.6.502,,,8,8,502,,,,,
554,CUENTA - Burger Lucrecia Noemí,dni-35697923,1.1.2.6.503,,,8,8,503,,,,,
555,CUENTA - Suarez Juan Carlos,dni-37190594,1.1.2.6.504,,,8,8,504,,,,,
556,CUENTA - SERVICENTROS OBERA S.A.,cuit-30707831215,1.1.2.6.505,,,8,8,505,,,,,
557,CUENTA - Villalba Bruno Germán,dni-33901036,1.1.2.6.506,,,8,8,506,,,,,
558,CUENTA - MAFALDA MAYORISTA S.R.L.,cuit-30711554676,1.1.2.6.507,,,8,8,507,,,,,
559,CUENTA - TROGAR SA,cuit-30592845748,1.1.2.6.508,,,8,8,508,,,,,
560,CUENTA - MIQUEO REINA,dni-13159775,1.1.2.6.509,,,8,8,509,,,,,
561,CUENTA - Cabrera Facundo Hernan,dni-36457385,1.1.2.6.510,,,8,8,510,,,,,
562,CUENTA - RODRIGUEZ CARLOS HERNAN,cuit-20259300267,1.1.2.6.511,,,8,8,511,,,,,
563,CUENTA - Rosicki Andrea Mariela,cuit-27290029738,1.1.2.6.512,,,8,8,512,,,,,
564,CUENTA - CORP DEL OBISPO PTE DE LA IGLESIA DE JESUCRISTO DE LOS STOS,cuit-30544857815,1.1.2.6.513,,,8,8,513,,,,,
565,CUENTA - ROCHA HERNAN DARIO,dni-32062672,1.1.2.6.514,,,8,8,514,,,,,
566,CUENTA - Aguero Jorge,dni-33423462,1.1.2.6.515,,,8,8,515,,,,,
567,CUENTA - Fernandez Carlos Alberto,dni-16188856,1.1.2.6.516,,,8,8,516,,,,,
568,CUENTA - Da Silva Alejandro Ruben,dni-17675671,1.1.2.6.517,,,8,8,517,,,,,
569,CUENTA - Coronel Pablo Antonio,dni-36060180,1.1.2.6.518,,,8,8,518,,,,,
570,CUENTA - DAÑIELESKI YOLANDA ESTHER,dni-10426278,1.1.2.6.519,,,8,8,519,,,,,
571,CUENTA - Antunez  Rodolfo Ezequiel,dni-34405571,1.1.2.6.520,,,8,8,520,,,,,
572,CUENTA - Cardozo Mario,dni-8299834,1.1.2.6.521,,,8,8,521,,,,,
573,CUENTA - SITJAR  ROBERTO ARIEL,dni-28403698,1.1.2.6.522,,,8,8,522,,,,,
574,CUENTA - Lagutt Javier,dni-35006511,1.1.2.6.523,,,8,8,523,,,,,
575,CUENTA - Villalba Jorge Rafael,dni-27696062,1.1.2.6.524,,,8,8,524,,,,,
576,CUENTA - Vargas  Claudio Antonio,dni-32560867,1.1.2.6.525,,,8,8,525,,,,,
577,CUENTA - Scher Hilda María,dni-20890091,1.1.2.6.526,,,8,8,526,,,,,
578,CUENTA - Monjes Aldo fabian,dni-26320097,1.1.2.6.527,,,8,8,527,,,,,
579,CUENTA - Klammer Héctor,dni-21540169,1.1.2.6.528,,,8,8,528,,,,,
580,CUENTA - Monsu Gustavo Daniel,dni-14678875,1.1.2.6.529,,,8,8,529,,,,,
581,CUENTA - Hasper Franco Alfredo,dni-39046811,1.1.2.6.530,,,8,8,530,,,,,
582,CUENTA - Rotta Mariel,dni-23207350,1.1.2.6.531,,,8,8,531,,,,,
583,CUENTA - Valiente Vanesa Janet,dni-30706511,1.1.2.6.532,,,8,8,532,,,,,
584,CUENTA - Duarte Angel Alberto,dni-18240471,1.1.2.6.533,,,8,8,533,,,,,
585,CUENTA - Becker Marcos Fabian,dni-25446233,1.1.2.6.534,,,8,8,534,,,,,
586,CUENTA - Valdez Mariela del Carmen,dni-30361608,1.1.2.6.535,,,8,8,535,,,,,
587,CUENTA - Gauto Jorge Luis,dni-23172533,1.1.2.6.536,,,8,8,536,,,,,
588,CUENTA - Skripchuk Silvia Patricia,dni-33079468,1.1.2.6.537,,,8,8,537,,,,,
589,CUENTA - Bergguis Cesar Facundo,dni-31984983,1.1.2.6.538,,,8,8,538,,,,,
590,CUENTA - Schmidt Flavio Cesar,dni-27529855,1.1.2.6.539,,,8,8,539,,,,,
591,CUENTA - Piedrabuena Gerardo Fabian,dni-26338764,1.1.2.6.540,,,8,8,540,,,,,
592,CUENTA - Courrege Jorge Edgardo,dni-11509814,1.1.2.6.541,,,8,8,541,,,,,
593,CUENTA - Statkievicz Elias Mariano,dni-16391482,1.1.2.6.542,,,8,8,542,,,,,
594,CUENTA - Rolin Rosana,dni-25951353,1.1.2.6.543,,,8,8,543,,,,,
595,CUENTA - EBERLE CRISTIAN JOHN,dni-37110528,1.1.2.6.544,,,8,8,544,,,,,
596,CUENTA - BORYSIUK ELISA CRISTINA,dni-24486979,1.1.2.6.545,,,8,8,545,,,,,
597,CUENTA - DUARTE GERMINO,dni-23107159,1.1.2.6.546,,,8,8,546,,,,,
598,CUENTA - SCHUNKE ATILIO LEINEL,dni-25160488,1.1.2.6.547,,,8,8,547,,,,,
599,CUENTA - TOLEDO GABRIEL HORACIO,dni-26325872,1.1.2.6.548,,,8,8,548,,,,,
600,CUENTA - HOSPITAL NIVEL 2 DR. JUSTO JOSE PAREIRA,cuit-30672358740,1.1.2.6.549,,,8,8,549,,,,,
601,CUENTA - OTAKA FABIAN JOSE,dni-24723789,1.1.2.6.550,,,8,8,550,,,,,
602,CUENTA - BENITEZ SANDRA ELISA,dni-32414712,1.1.2.6.551,,,8,8,551,,,,,
603,CUENTA - MERCADO CARLOS JAVIER,dni-28767720,1.1.2.6.552,,,8,8,552,,,,,
604,CUENTA - Ibarra Hector,dni-23730733,1.1.2.6.553,,,8,8,553,,,,,
605,CUENTA - DIEDRICH ROSANA GABRIELA,dni-28765915,1.1.2.6.554,,,8,8,554,,,,,
606,CUENTA - OHASHI MARIANA VICTORIA,dni-28354156,1.1.2.6.555,,,8,8,555,,,,,
607,CUENTA - SUCH MARIA SOLEDAD,dni-28354099,1.1.2.6.556,,,8,8,556,,,,,
608,CUENTA - Durand Daniel Alberto,dni-27526998,1.1.2.6.557,,,8,8,557,,,,,
609,CUENTA - Barrios Franco Saul,dni-32180203,1.1.2.6.558,,,8,8,558,,,,,
610,CUENTA - TRELA BEATRIZ RAQUEL,cuit-27240336044,1.1.2.6.559,,,8,8,559,,,,,
611,CUENTA - Emprendimiento Gastronómico Mocona S.A.,cuit-30709148636,1.1.2.6.560,,,8,8,560,,,,,
612,CUENTA - CANO CLAUDIO ANDRES,dni-27477555,1.1.2.6.561,,,8,8,561,,,,,
613,CUENTA - AUTOVALLE SOCIEDAD ANONIMA,cuit-30567223899,1.1.2.6.562,,,8,8,562,,,,,
614,CUENTA - FINKE ALBERTINA SILVANA MARIELA,dni-36199684,1.1.2.6.563,,,8,8,563,,,,,
615,CUENTA - PAWLUK CELIA,dni-17608735,1.1.2.6.564,,,8,8,564,,,,,
616,CUENTA - COLUCCI MARIA FLORENCIA,dni-34897420,1.1.2.6.565,,,8,8,565,,,,,
617,CUENTA - HERRERA VICTOR HUGO,dni-20400087,1.1.2.6.566,,,8,8,566,,,,,
618,CUENTA - KLEIBERT SANDRO ARIEL,dni-33604167,1.1.2.6.567,,,8,8,567,,,,,
619,CUENTA - BOGADO LUIS GUILLERMO,dni-23892823,1.1.2.6.568,,,8,8,568,,,,,
620,CUENTA - POLACZINSKI MARCELO RAMON,dni-25522437,1.1.2.6.569,,,8,8,569,,,,,
621,CUENTA - KUNIGK MARTIN ANDRES,dni-14207954,1.1.2.6.570,,,8,8,570,,,,,
622,CUENTA - BAR SONIA NOEMI,dni-17252044,1.1.2.6.571,,,8,8,571,,,,,
623,CUENTA - SUKANEN BRENDA BERNABE,dni-40919779,1.1.2.6.572,,,8,8,572,,,,,
624,CUENTA - CEA-ENDEPA - CONFERENCIA EPISCOPAL ARGENTINA,cuit-30517312904,1.1.2.6.573,,,8,8,573,,,,,
625,CUENTA - DOS SANTOS ANGELA ROSA,cuit-27291432455,1.1.2.6.574,,,8,8,574,,,,,
626,CUENTA - NUÑEZ BARBARA GISELA,dni-29405551,1.1.2.6.575,,,8,8,575,,,,,
627,CUENTA - FRIEDRICH CINTHIA GABRIELA,dni-36093873,1.1.2.6.576,,,8,8,576,,,,,
628,CUENTA - GAULER EMANUEL ERNESTO,dni-32042173,1.1.2.6.577,,,8,8,577,,,,,
629,CUENTA - ARNDT HECTOR ALCIDES,cuit-20128312049,1.1.2.6.578,,,8,8,578,,,,,
630,CUENTA - Hut Jonathan Anibal,dni-33074314,1.1.2.6.579,,,8,8,579,,,,,
631,CUENTA - ROLIN SILVIA AIDEE,dni-17463268,1.1.2.6.580,,,8,8,580,,,,,
632,CUENTA - BARRIOS MALENA,dni-20765949,1.1.2.6.581,,,8,8,581,,,,,
633,CUENTA - SKUAREK JORGE HUGO,dni-13647325,1.1.2.6.582,,,8,8,582,,,,,
634,CUENTA - PAPUK RAFAEL,dni-27459459,1.1.2.6.583,,,8,8,583,,,,,
635,CUENTA - ESCALANTE HECTOR MATIAS,dni-23702409,1.1.2.6.584,,,8,8,584,,,,,
636,CUENTA - NOVOSAD PABLO DANIEL ALEXIS,cuit-20303634593,1.1.2.6.585,,,8,8,585,,,,,
637,CUENTA - HASSENRUCK HUMBERTO OTTO,dni-22317769,1.1.2.6.586,,,8,8,586,,,,,
638,CUENTA - Braga Iris Blanca,dni-26987435,1.1.2.6.587,,,8,8,587,,,,,
639,CUENTA - LORENZO ROSANA MABEL,dni-27190165,1.1.2.6.588,,,8,8,588,,,,,
640,CUENTA - KOSUR ERICA NOEMI,dni-27190144,1.1.2.6.589,,,8,8,589,,,,,
641,CUENTA - Nacimento Cristian Leonardo,dni-39526382,1.1.2.6.590,,,8,8,590,,,,,
642,CUENTA - VELAZQUEZ JONATHAN GABRIEL,dni-35060712,1.1.2.6.591,,,8,8,591,,,,,
643,CUENTA - BOSCHMAN ENRIQUE GUILLERMO,dni-27810245,1.1.2.6.592,,,8,8,592,,,,,
644,CUENTA - ACEVEDO RICHARDT RUTH ADELIA,dni-36409292,1.1.2.6.593,,,8,8,593,,,,,
645,CUENTA - DE OLIVERA SAMUEL,dni-28568705,1.1.2.6.594,,,8,8,594,,,,,
646,CUENTA - Zapaya Cristhian Raul,dni-30457490,1.1.2.6.595,,,8,8,595,,,,,
647,CUENTA - GOMEZ NORMA GRACIELA,dni-12312205,1.1.2.6.596,,,8,8,596,,,,,
648,CUENTA - GRESPANI JUAN ALBERTO,dni-28610802,1.1.2.6.597,,,8,8,597,,,,,
649,CUENTA - SADOWSKI VANESA CRISTINA,dni-30903933,1.1.2.6.598,,,8,8,598,,,,,
650,CUENTA - Streluk  Edgardo Dario,dni-29143045,1.1.2.6.599,,,8,8,599,,,,,
651,CUENTA - Simao Martin,dni-41615396,1.1.2.6.600,,,8,8,600,,,,,
652,CUENTA - ESPINDOLA  RAUL ROBERTO,dni-23961121,1.1.2.6.601,,,8,8,601,,,,,
653,CUENTA - ROLIN ADRIANA MARIEL,dni-23204372,1.1.2.6.602,,,8,8,602,,,,,
654,CUENTA - Petri  Claudio Fabian,dni-26319526,1.1.2.6.603,,,8,8,603,,,,,
655,CUENTA - STATKIEVICH DOMINGO ESTEBAN,dni-12103570,1.1.2.6.604,,,8,8,604,,,,,
656,CUENTA - Dos Santos Andrea Paula,dni-22459142,1.1.2.6.605,,,8,8,605,,,,,
657,CUENTA - Figueroa Claudio Daniel,dni-28398524,1.1.2.6.606,,,8,8,606,,,,,
658,CUENTA - SCHEIN MARTA INES,dni-26669611,1.1.2.6.607,,,8,8,607,,,,,
659,CUENTA - NOVOSAD LEANDRO OMAR,dni-35060781,1.1.2.6.608,,,8,8,608,,,,,
660,CUENTA - CASCO CARLOS ALBERTO ANTONIO,dni-20496110,1.1.2.6.609,,,8,8,609,,,,,
661,CUENTA - CANDIYU YAMILA ELISA,dni-39820006,1.1.2.6.610,,,8,8,610,,,,,
662,CUENTA - BORGHI  LUCAS,dni-37792621,1.1.2.6.611,,,8,8,611,,,,,
663,CUENTA - Kategora Basilio Sergio,dni-26502699,1.1.2.6.612,,,8,8,612,,,,,
664,CUENTA - Espindola Enrique Adolfo,dni-16659855,1.1.2.6.613,,,8,8,613,,,,,
665,CUENTA - DOS SANTOS PABLO JESUS,dni-18582359,1.1.2.6.614,,,8,8,614,,,,,
666,CUENTA - FELDMANN RICARDO OSCAR SANATORIO REGIONAL,dni-18246961,1.1.2.6.615,,,8,8,615,,,,,
667,CUENTA - SARTORI ROMINA SOLEDAD,dni-29215399,1.1.2.6.616,,,8,8,616,,,,,
668,CUENTA - Morel Morella Marisol,dni-41632317,1.1.2.6.617,,,8,8,617,,,,,
669,CUENTA - PIMENTEL GABRIELA TAMARA,dni-38565471,1.1.2.6.618,,,8,8,618,,,,,
670,CUENTA - KOLOSZYC LEONARDO MARCELO,dni-22900275,1.1.2.6.619,,,8,8,619,,,,,
671,CUENTA - MIRANDA HUGO ORLANDO,dni-29597196,1.1.2.6.620,,,8,8,620,,,,,
672,CUENTA - KAMADA DARIO SANTIAGO,dni-40041725,1.1.2.6.621,,,8,8,621,,,,,
673,CUENTA - KOCHEN LUIS DAVID,dni-13762839,1.1.2.6.622,,,8,8,622,,,,,
674,CUENTA - Zach NORMA GRACIELA,dni-22611810,1.1.2.6.623,,,8,8,623,,,,,
675,CUENTA - ALTAMIRANO Eduardo Oscar,dni-18376068,1.1.2.6.624,,,8,8,624,,,,,
676,CUENTA - Michalovski Antonio Rafael,dni-30363374,1.1.2.6.625,,,8,8,625,,,,,
677,CUENTA - Martinez  Eduardo Oscar,dni-20420999,1.1.2.6.626,,,8,8,626,,,,,
678,CUENTA - Cantini Valeria Soledad,dni-31389036,1.1.2.6.627,,,8,8,627,,,,,
679,CUENTA - Jardin Facundo Roman,dni-34836902,1.1.2.6.628,,,8,8,628,,,,,
680,CUENTA - DUETE  PAOLA KARINA,dni-30752805,1.1.2.6.629,,,8,8,629,,,,,
681,CUENTA - CORREA SANDRA,dni-26922613,1.1.2.6.630,,,8,8,630,,,,,
682,CUENTA - Polkoski Silvia Cristina,dni-29597972,1.1.2.6.631,,,8,8,631,,,,,
683,CUENTA - DOS SANTOS ELVIO LUIS,dni-33356288,1.1.2.6.632,,,8,8,632,,,,,
684,CUENTA - KENER ESTEBAN LEONARDO,dni-28765904,1.1.2.6.633,,,8,8,633,,,,,
685,CUENTA - CARDOZO CRISTIAN ANDRES,dni-34003747,1.1.2.6.634,,,8,8,634,,,,,
686,CUENTA - Sosa  Alan Leonardo,dni-35060803,1.1.2.6.635,,,8,8,635,,,,,
687,CUENTA - Frey Ana María,dni-22900351,1.1.2.6.636,,,8,8,636,,,,,
688,CUENTA - ACOSTA IGNASIA,dni-30897890,1.1.2.6.637,,,8,8,637,,,,,
689,CUENTA - ARTECHUK MARGARITA,dni-24723637,1.1.2.6.638,,,8,8,638,,,,,
690,CUENTA - Rokembach Irma,dni-12103403,1.1.2.6.639,,,8,8,639,,,,,
691,CUENTA - VALINTE JUAN MARCELO,dni-24255949,1.1.2.6.640,,,8,8,640,,,,,
692,CUENTA - DELFINO DUHME CRISTIAN DANTE,dni-40412296,1.1.2.6.641,,,8,8,641,,,,,
693,CUENTA - Rau Walter,dni-20117709,1.1.2.6.642,,,8,8,642,,,,,
694,CUENTA - Mendez Fabio Francisco,dni-25160379,1.1.2.6.643,,,8,8,643,,,,,
695,CUENTA - Tonn Verónica Antonella,dni-38565337,1.1.2.6.644,,,8,8,644,,,,,
696,CUENTA - Kruger Marisel Elizabeth,dni-32414749,1.1.2.6.645,,,8,8,645,,,,,
697,CUENTA - Milde Manuel Teodoro,dni-24723815,1.1.2.6.646,,,8,8,646,,,,,
698,CUENTA - VELAZQUEZ VIVIANA LORENA,dni-30752518,1.1.2.6.647,,,8,8,647,,,,,
699,CUENTA - Kauss Silvia Alejandra,dni-27190085,1.1.2.6.648,,,8,8,648,,,,,
700,CUENTA - MARTINEZ CRISTIAN MAXIMILIANO,dni-32050588,1.1.2.6.649,,,8,8,649,,,,,
701,CUENTA - Gerber de Closs Liana Beatriz,cuit-27148883918,1.1.2.6.650,,,8,8,650,,,,,
702,CUENTA - Iglesia Bethania Sergio Staudt,dni-27100259,1.1.2.6.651,,,8,8,651,,,,,
703,CUENTA - Pizzutti Christian Jose,dni-26141270,1.1.2.6.652,,,8,8,652,,,,,
704,CUENTA - Friedemberg Hugo Alberto,dni-24135982,1.1.2.6.653,,,8,8,653,,,,,
705,CUENTA - Boichuk Jose Luis,dni-37222144,1.1.2.6.654,,,8,8,654,,,,,
706,CUENTA - Krysiuk Julio Cesar,dni-28969067,1.1.2.6.655,,,8,8,655,,,,,
707,CUENTA - Garcia Eduardo Alberto,dni-27675875,1.1.2.6.656,,,8,8,656,,,,,
708,CUENTA - Nuñez Marcela,dni-26091300,1.1.2.6.657,,,8,8,657,,,,,
709,CUENTA - Wilde Amalia,dni-18063834,1.1.2.6.658,,,8,8,658,,,,,
710,CUENTA - Kreder Nicolas,dni-34295266,1.1.2.6.659,,,8,8,659,,,,,
711,CUENTA - Fedullo Cesar Eduardo,dni-28512772,1.1.2.6.660,,,8,8,660,,,,,
712,CUENTA - Clark Marta Sonia,dni-22671347,1.1.2.6.661,,,8,8,661,,,,,
713,CUENTA - CORDEIRO Y CIA SRL,cuit-30611689507,1.1.2.6.662,,,8,8,662,,,,,
714,CUENTA - TORRES ALBERTO,dni-13357853,1.1.2.6.663,,,8,8,663,,,,,
715,CUENTA - FIEGE  SAMUEL BENJAMIN,dni-37083720,1.1.2.6.664,,,8,8,664,,,,,
716,CUENTA - Bautista Hector Ricardo,dni-13162819,1.1.2.6.665,,,8,8,665,,,,,
717,CUENTA - ROSNISKI  HUGO MIGUEL,dni-17433942,1.1.2.6.666,,,8,8,666,,,,,
718,CUENTA - Golz Pamela Yamila,dni-38081715,1.1.2.6.667,,,8,8,667,,,,,
719,CUENTA - STACHOWSKI LOURDES RAQUEL,dni-25123517,1.1.2.6.668,,,8,8,668,,,,,
720,CUENTA - De lima Leonida Matilde,dni-27999842,1.1.2.6.669,,,8,8,669,,,,,
721,CUENTA - Instituto Previsión Social de la Provincia de Misiones,cuit-33563188699,1.1.2.6.670,,,8,8,670,,,,,
722,CUENTA - LITTMANN VANESA,dni-32414848,1.1.2.6.671,,,8,8,671,,,,,
723,CUENTA - DINGLER GLADIS BEATRIZ,dni-20181936,1.1.2.6.672,,,8,8,672,,,,,
724,CUENTA - Rolon Carlos Fabian,dni-25170577,1.1.2.6.673,,,8,8,673,,,,,
725,CUENTA - UAZU HOGAR S.A.,cuit-30708910003,1.1.2.6.674,,,8,8,674,,,,,
726,CUENTA - WRUBLEWSKI MARIA ANDREA,dni-21724357,1.1.2.6.675,,,8,8,675,,,,,
727,CUENTA - MONTENEGRO JOSUE,dni-18903329,1.1.2.6.676,,,8,8,676,,,,,
728,CUENTA - LORENZO GISELLE,dni-31329305,1.1.2.6.677,,,8,8,677,,,,,
729,CUENTA - AMARILLA NORMA GRACIELA,dni-20119165,1.1.2.6.678,,,8,8,678,,,,,
730,CUENTA - FELTAN GERMAN DIEGO,dni-34013837,1.1.2.6.679,,,8,8,679,,,,,
731,CUENTA - GuoHao Xu,cuit-23939337024,1.1.2.6.680,,,8,8,680,,,,,
732,CUENTA - FUSIGER  ADRIANA SOLANGE,dni-36157720,1.1.2.6.681,,,8,8,681,,,,,
733,CUENTA - FERREYRA  SORAYA PAMELA SOLEDAD,dni-28405051,1.1.2.6.682,,,8,8,682,,,,,
734,CUENTA - FLOREZ CRISTINA IRENE,dni-16659829,1.1.2.6.683,,,8,8,683,,,,,
735,CUENTA - DINGLER MARIA DEL PILAR,dni-23215253,1.1.2.6.684,,,8,8,684,,,,,
736,CUENTA - FELTAN MATEO GASTON,dni-35328711,1.1.2.6.685,,,8,8,685,,,,,
737,CUENTA - Van Eenennaam Catharina,dni-36095337,1.1.2.6.686,,,8,8,686,,,,,
738,CUENTA - STACHOWSKI  YULIA GRISELDA,dni-29760384,1.1.2.6.687,,,8,8,687,,,,,
739,CUENTA - FECHNER CRISTIAN DAVID,dni-33075549,1.1.2.6.688,,,8,8,688,,,,,
740,CUENTA - KIESEL ROSA INES,dni-25123578,1.1.2.6.689,,,8,8,689,,,,,
741,CUENTA - Scatolaro Maria Rossana,dni-17711607,1.1.2.6.690,,,8,8,690,,,,,
742,CUENTA - BRES JONATAN JUAN GABRIEL,dni-34407656,1.1.2.6.691,,,8,8,691,,,,,
743,CUENTA - STRIEDER LUIS ALEJANDRO,dni-40194155,1.1.2.6.692,,,8,8,692,,,,,
744,CUENTA - Asociación de los Testigos de Jehová De Espíndola Carlos,cuit-30626712068,1.1.2.6.693,,,8,8,693,,,,,
745,CUENTA - Rippel Nestor Fabian,dni-21301153,1.1.2.6.694,,,8,8,694,,,,,
746,CUENTA - Sequeira Daniela Marisol,dni-33852965,1.1.2.6.695,,,8,8,695,,,,,
747,CUENTA - Wisner Diego,dni-36461438,1.1.2.6.696,,,8,8,696,,,,,
748,CUENTA - Escobar Diego,dni-21541572,1.1.2.6.697,,,8,8,697,,,,,
749,CUENTA - Hirch Luisa Esther,dni-17807625,1.1.2.6.698,,,8,8,698,,,,,
750,CUENTA - Suarez Mariela Noemi,dni-21301186,1.1.2.6.699,,,8,8,699,,,,,
751,CUENTA - Zapaya Nanci,dni-29356697,1.1.2.6.700,,,8,8,700,,,,,
752,CUENTA - Fernandez  Juan Luis,dni-14667189,1.1.2.6.701,,,8,8,701,,,,,
753,CUENTA - Dos Santos Liliana,dni-31266504,1.1.2.6.702,,,8,8,702,,,,,
754,CUENTA - Rotta Gabriela,dni-31122103,1.1.2.6.703,,,8,8,703,,,,,
755,CUENTA - Prado Rolando Omar,dni-29663361,1.1.2.6.704,,,8,8,704,,,,,
756,CUENTA - Tomastik eduardo,dni-24153866,1.1.2.6.705,,,8,8,705,,,,,
757,CUENTA - Anskaitis Rogelio Roberto,dni-21684616,1.1.2.6.706,,,8,8,706,,,,,
758,CUENTA - Fernandez Tamara,dni-36059510,1.1.2.6.707,,,8,8,707,,,,,
